16002|160021200000|*MICHELLE PEREIRA|831104145288|19831104|MY|7 JALAN 6/26, , , 46000 PETALING JAYA, SELANGOR.|HOUSEWIFE|Individual|HQ21666-30|20180319 16:03|Sell|GBP|1000.00|5.53000000|5530.00|TRAVELLING|||
16002|160021200000|A USHARANI A/P A APPATHURAI|660519106754|19660519|MY|NO 37 JALAN KOOP 2F, TAMAN CUEPACS, CHERAS, 43200 BATU 9 CHERAS, SELANGOR.|MEDICAL & HEALTH|Individual|HQ20736-30|20180224 16:02|Sell|GBP|10900.00|5.50000000|59950.00|TRAVELLING|SAVINGS||
16002|160021200000|AARON MARTIN HERRERA|771210055209|19771210|MY|NO 173 LORONG NILAM 6, TAMAN JAYAMAS, , 70200 SEREMBAN, NEGERI SEMBILAN.|REAL ESTATE/PROPERTY|Individual|HQ19139-30|20180115 17:01|Sell|USD|1000.00|3.99000000|3990.00|TRAVELLING|SALARY||
16002|160021200000|AARON MARTIN HERRERA|771210055209|19771210|MY|NO 173 LORONG NILAM 6, TAMAN JAYAMAS, , 70200 SEREMBAN, NEGERI SEMBILAN.|REAL ESTATE/PROPERTY|Individual|HQ19749-30|20180130 15:01|Sell|USD|900.00|3.92000000|3528.00|TRAVELLING|||
16002|160021200000|ABDUL KADER MOHAMED TADJOUDINE|E65171388|19620821|SG|PJ HILTON HOTEL|BUSINESS|Individual|HQ21966-30|20180326 15:03|Buy|SGD|2000.00|2.94000000|5880.00|PERSONAL EXPENSES|||
16002|160021200000|ABDUL RAZAK BIN KHAMIS|630613045567|19630613|MY|NO 64, JALAN PJS 4/27, TAMAN MEDAN, 46000 PETALING JAYA, SELANGOR.|ADMINISTRATION/CLERICAL|Individual|HQ19230-30|20180117 15:01|Buy|AUD|1000.00|3.12000000|3120.00|FAMILY MAINTENANCE|||
16002|160021200000|ABRAHAM PHILIPS|831014146201|19831014|MY|11 JALAN 12/19, SEKSYEN 12, , 46200 PETALING JAYA, SELANGOR.|DOCTOR|Individual|HQ21952-30|20180326 13:03|Sell|AUD|1000.00|3.09000000|3090.00|TRAVELLING|||